%YAML 1.1
%TAG !u! tag:unity3d.com,2011:
--- !u!1 &8672916598929668324
GameObject:
  m_ObjectHideFlags: 0
  m_CorrespondingSourceObject: {fileID: 0}
  m_PrefabInstance: {fileID: 0}
  m_PrefabAsset: {fileID: 0}
  serializedVersion: 6
  m_Component:
  - component: {fileID: 8672916598929668323}
  - component: {fileID: 2487771723534672134}
  m_Layer: 0
  m_Name: TileManager
  m_TagString: Untagged
  m_Icon: {fileID: 0}
  m_NavMeshLayer: 0
  m_StaticEditorFlags: 0
  m_IsActive: 1
--- !u!4 &8672916598929668323
Transform:
  m_ObjectHideFlags: 0
  m_CorrespondingSourceObject: {fileID: 0}
  m_PrefabInstance: {fileID: 0}
  m_PrefabAsset: {fileID: 0}
  m_GameObject: {fileID: 8672916598929668324}
  m_LocalRotation: {x: 0, y: 0, z: 0, w: 1}
  m_LocalPosition: {x: 306.72406, y: 191.75928, z: 1115.6588}
  m_LocalScale: {x: 1, y: 1, z: 1}
  m_Children: []
  m_Father: {fileID: 0}
  m_RootOrder: 0
  m_LocalEulerAnglesHint: {x: 0, y: 0, z: 0}
--- !u!114 &2487771723534672134
MonoBehaviour:
  m_ObjectHideFlags: 0
  m_CorrespondingSourceObject: {fileID: 0}
  m_PrefabInstance: {fileID: 0}
  m_PrefabAsset: {fileID: 0}
  m_GameObject: {fileID: 8672916598929668324}
  m_Enabled: 1
  m_EditorHideFlags: 0
  m_Script: {fileID: 11500000, guid: ad2f7baa88492ef49b7ba63114239470, type: 3}
  m_Name: 
  m_EditorClassIdentifier: 
  activeType: 1
  activeMaterial: {fileID: 2100000, guid: 53c79edfd6c7a194a91c7d183890b318, type: 2}
  grassMaterial: {fileID: 2100000, guid: 53c79edfd6c7a194a91c7d183890b318, type: 2}
  waterMaterial: {fileID: 2100000, guid: 66ce49480b63c5448888bf0298e5a658, type: 2}
  mountainMaterial: {fileID: 2100000, guid: b7dbf811fae043840a356ee765a9db72, type: 2}
  snowMaterial: {fileID: 2100000, guid: 22c65de274897e44786569119fe08ba4, type: 2}
  grassTile: {fileID: 2100641025651356996, guid: f750ffab8cb88964cbf28bc86ab05bff,
    type: 3}
  waterTile: {fileID: 2002105203981474953, guid: e4bcf0c14a84ceb459421575433b3a2f,
    type: 3}
  saltWaterTile: {fileID: 2002105203981474953, guid: fab428f7c8b46ac488a1fa59b9b28457,
    type: 3}
  mountainTile: {fileID: 2002105203981474953, guid: c2b459f2f7acfa54ab45c3e4b735b471,
    type: 3}
  tree: {fileID: 3702055049604588911, guid: c1de88f0590d78f40a7e5996e37e2526, type: 3}
